{
  "images" : [
    {
      "idiom" : "universal",
      "filename" : "bilderrahmen-mit-bild-berg_318-40293-40.png",
      "scale" : "1x"
    },
    {
      "idiom" : "universal",
      "filename" : "bilderrahmen-mit-bild-berg_318-40293-40@2x.png",
      "scale" : "2x"
    },
    {
      "idiom" : "universal",
      "filename" : "bilderrahmen-mit-bild-berg_318-40293-40@3x.png",
      "scale" : "3x"
    }
  ],
  "info" : {
    "version" : 1,
    "author" : "xcode"
  }
}